{
  "client_id": "0oaidso7dkWK6MkR00h7",
  "redirect_uri": "ru.smt.project.mobile:/callback",
  "scopes": [
    "openid",
    "profile",
    "offline_access"
  ],
  "issuer_uri": "https://dev-967792.oktapreview.com/oauth2/default"
}